{
  "nouns": [
    {
      "id": 1,
      "english": "English word 1",
      "russian": "Russian word 1",
      "gender": "f",
      "notes": "Some notes"
    },
    {
      "id": 2,
      "english": "English word 2",
      "russian": "Russian word 2",
      "gender": "f",
      "notes": "Interesting word"
    },
    {
      "id": 3,
      "english": "English word 3",
      "russian": "Russian word 3",
      "gender": "m",
      "notes": "Unusual ending"
    },
    {
      "english": "English word 4",
      "russian": "Russian word 4",
      "notes": "Adding via crud",
      "gender": "m",
      "id": 4
    }
  ]
}
